58
1000000000000000000000000000000000000000000000000000000001
1000000000000000000000000000000000000000000000000000000001
1020000000000000000000000000000000000000000000000000000021
1111100111100111000000000000000000000000000000000000000111
1000000100000100000000000000000000000020000000000000100001
1000000166666100099900000000000000000000000000000000000001
1911111111111100000000000B01100000000000000000000000000001
1900000011111100000000111111100011111100111110011111000001
1900000211111100000000111111100000000000000000000000000001
1911111111111100000011111111100000000000000000000000001111
190000000000000000001111111110000G000000000000000000000001
1900000000000000111111111111100011110000000000000000000021
1399999999999990000000000000000000001100111110011111011111
1133333333333333333333333333333333333333333333333333333331
1111111111111111111111111111111111111111111111111111111111
B Ballz: Whew, it sure is smelly down here.
P The Professor: Of course it is, Ballz. Iranic SEWERS are full of garbage, debris, filth, junk, refuse, trash, rubble, sewage, garbage can, garbage disposal, garbage man, garbage collection, recycling, land fill, sewage pipes...
B Ballz: I get it, Prof...
P The Professor: Ah, pardon, Ballz. Don't know what I'm saying, sometimes.
C The Colonel: Get on with the mission, Ballz. God Save the Queen!