50
11111111111111111111111111111111111111111111111111
10000000000000000000000033300000000000000000000021
1B000000000000000000000000000000000000000000EEEEE1
1DDD1111411990000000000002000000000000000000000001
141E00Q14100000000144410171000111000000000000000d1
1410000141000010101111111111D1111111E1E11E1EE00011
1410001141666666661xxxxxxxx19100000033333333311111
14100001411111111114444444412100000000000000110001
14100001P18484848144444444419100000000000000Q10001
14110001114444444444444444444100000000020000100001
14100000000001444414444444444101111611116111000001
141111111111111111111111111111011111111111100000P1
141000060220602206012121212100010000000000000EEEE1
1440000000000000000DdEdDdEdD0001G20000001111133331
11111111111111111111111111111111111111111111111111
P The Professor: Are you all right, Ballz? This prison seems pretty rough.
B Ballz: No problems for Ballz! By the way Professor, there is a thing I have been wanting to ask you...
P The Professor: Yes, Ballz?
B Ballz: My name, what does it mean?
P The Professor: Oh... the name... let's see... It stands for Biologically Armed Lower Lifeform!
B Ballz: Ah, that makes so much sense! But... The Z, what does that mean?
C The Colonel: That's just a cool letter!
B Ballz: All right!!